2R04
5HIR
6HIR
1BD1
1PMB
2LZT
2MEV
1RMU
1L26
1L25
1L24
1L23
1L22
1L21
1L20
1L19
1L18
1L17
1L35
1L34
1L33
1L32
1L31
1L30
1L29
1L28
1L27
1CA2
1CBH
1CMS
1COH
1I1B
1MBA
1R08
2CA2
2CBH
2PLV
2RSP
2TS1
1TEC
1THI
2AAT
2UTG
3RNT
3TS1
3HVP
2RNT
8ADH
8DFR
1ALC
2LZ2
1GOX
1HNE
1FD2
1UTG
4TS1
2GD1
2GLS
1R69
2CRO
1BMV
2OR1
2LBP
2LDB
3HFM
4MBN
4GPD
5MBN
5CYT
8LDH
6LDH
2LIV
2IG2
1LDB
1LDM
1LLC
2FB4
2BDS
4MDH
2LDX
1RDG
2HVP
1HOE
1VJ4
2DND
1TLP
1TMN
2PFK
3DNB
3PFK
3ANA
3TMN
4DNB
3INS
4PFK
2TMN
2TMV
4TMN
5TMN
6TMN
1BDS
1PFK
1PRC
1LRP
1D16
1DCG
1MBC
1DNH
1DNE
2DCG
5TNC
7RSA
1AMT
1PAZ
2SEC
2SNI
2CI2
2TRM
1SBC
1SGT
1TRM
3CLN
4TNC
1CHO
1CSE
1RBB
1ETU
2PRK
1WRP
1XIA
3GRS
3WRP
3EBX
4RHV
1PHH
1L04
1L03
1L02
1L01
1L15
1L14
1L13
1L12
1L11
1L10
1L09
1L08
1L07
1L06
1L05
1L16
1DN8
1XY1
1XY2
1TON
3ADK
3APR
3EST
9DNA
1DN6
1NTP
1HLA
1GD1
2TRA
3TRA
4TRA
3LYM
2TMA
2LYM
2MHR
1RNT
6PTI
1DPI
2APR
1EFM
2CPP
6CHA
1DN5
1DN4
1UBQ
2CGA
1TN1
2AZA
4PCY
5PCY
8BNA
1CTF
6PCY
1TN2
3ICB
9PAP
2LZM
1SGC
1TRA
4APE
2EST
2ABX
2TGD
6RSA
1PP2
3PCY
2LHB
1RSM
2GN5
2CCY
2CYP
2OVO
4TPI
1GP1
2ANA
1LZT
5RSA
7BNA
4SBV
2ALP
4CHA
5CHA
5RXN
7CAT
8CAT
4RXN
1PPD
2MCP
1LZ1
1FX1
1MCP
3RP2
5PTI
6BNA
1CC5
3CTS
4CTS
2TBV
1CTS
2CTS
2PKA
2KAI
6ADH
2HHB
3HHB
5ADH
7ADH
4HHB
2PCY
3C2C
2C2C
2CAB
2CDV
5BNA
3GPD
1HHO
1PYP
3BP2
2RHE
1P2P
4CAT
3SGB
1HR3
2SGA
1CCR
7TLN
1ACX
2LH5
2LH3
2LH2
2LH1
2LH7
2LH6
2MHB
1LH3
1LH2
1LH1
1LH7
1LH6
1LH5
1TGS
1TPA
1TPP
1TPO
2PTC
3PTB
3TPI
2TGP
4PTI
2ATC
3DFR
4DFR
2TAA
1AAT
3PGK
2INS
3CPA
4CPA
2SNS
5CPA
1ANA
1HBS
3PGM
4TLN
5TLN
1OVO
1CTX
3BNA
4BNA
1TGC
1TGT
2PTN
3PTN
2TGA
2TGT
2TPI
1CN1
2BNA
1PFC
1MBD
1MBO
1LZ2
451C
351C
1FC2
1FC1
2LZH
1LZH
1CRN
2BP2
1BNA
1BP2
1ZNA
5LDH
1HKG
1PPT
1NXB
1AZU
3CYT
2GCH
2SOD
1KES
3HYA
4HYA
1AGA
1C4S
2HYA
1CAR
1CAP
2C4S
2ACT
1PYK
9LYZ
1HDS
1TGN
2HCO
1HCO
1ECD
1ECA
1ECN
1ECO
1TGB
1MBS
6TNA
1KGA
1HRB
2YHX
1HYA
4TNA
1RHD
1GCN
1CPB
2PAB
8LYZ
1PGI
7LYZ
2DHB
3LDH
2PAD
4LYZ
3LYZ
5LYZ
4PAD
5PAD
6LYZ
1PAD
2LYZ
1LYZ
6PAD
2CNA
1GPD
2CHA
1SBT
1CHG
1HIP
1TIM
3CNA
2SBT
1CYC
2PGK
155C
1FDH
1EST
1REI
1SRX
